[
  {
    "artists": {
      "href": "https://api.spotify.com/v1/search?query=tania+bowra&offset=0&limit=20&type=artist",
      "items": [
        {
          "external_urls": {
            "spotify": "https://open.spotify.com/artist/08td7MxkoHQkXnWAYD8d6Q"
          },
          "genres": [],
          "href": "https://api.spotify.com/v1/artists/08td7MxkoHQkXnWAYD8d6Q",
          "id": "08td7MxkoHQkXnWAYD8d6Q",
          "images": [
            {
              "height": 640,
              "url": "https://i.scdn.co/image/f2798ddab0c7b76dc2d270b65c4f67ddef7f6718",
              "width": 640
            },
            {
              "height": 300,
              "url": "https://i.scdn.co/image/b414091165ea0f4172089c2fc67bb35aa37cfc55",
              "width": 300
            },
            {
              "height": 64,
              "url": "https://i.scdn.co/image/8522fc78be4bf4e83fea8e67bb742e7d3dfe21b4",
              "width": 64
            }
          ],
          "name": "Tania Bowra",
          "popularity": 0,
          "type": "artist",
          "uri": "spotify:artist:08td7MxkoHQkXnWAYD8d6Q"
        }
      ],
      "limit": 20,
      "next": null,
      "offset": 0,
      "previous": null,
      "total": 1
    }
  },

  {
    "tracks": {
      "href": "https://api.spotify.com/v1/search?query=hello+&type=track&offset=0&limit=1",
      "items": [
        {
          "album": {
            "album_type": "single",
            "artists": [
              {
                "external_urls": {
                  "spotify": "https://open.spotify.com/artist/3l0CmX0FuQjFxr8SK7Vqag"
                },
                "href": "https://api.spotify.com/v1/artists/3l0CmX0FuQjFxr8SK7Vqag",
                "id": "3l0CmX0FuQjFxr8SK7Vqag",
                "name": "Clairo",
                "type": "artist",
                "uri": "spotify:artist:3l0CmX0FuQjFxr8SK7Vqag"
              }
            ],
            "external_urls": {
              "spotify": "https://open.spotify.com/album/3NEDQmYF1roygFssVEwkwv"
            },
            "href": "https://api.spotify.com/v1/albums/3NEDQmYF1roygFssVEwkwv",
            "id": "3NEDQmYF1roygFssVEwkwv",
            "images": [
              {
                "height": 640,
                "url": "https://i.scdn.co/image/ab67616d0000b273bf94e27360806b5aa5025f93",
                "width": 640
              },
              {
                "height": 300,
                "url": "https://i.scdn.co/image/ab67616d00001e02bf94e27360806b5aa5025f93",
                "width": 300
              },
              {
                "height": 64,
                "url": "https://i.scdn.co/image/ab67616d00004851bf94e27360806b5aa5025f93",
                "width": 64
              }
            ],
            "name": "diary 001",
            "release_date": "2018-05-25",
            "release_date_precision": "day",
            "total_tracks": 6,
            "type": "album",
            "uri": "spotify:album:3NEDQmYF1roygFssVEwkwv"
          },
          "artists": [
            {
              "external_urls": {
                "spotify": "https://open.spotify.com/artist/3l0CmX0FuQjFxr8SK7Vqag"
              },
              "href": "https://api.spotify.com/v1/artists/3l0CmX0FuQjFxr8SK7Vqag",
              "id": "3l0CmX0FuQjFxr8SK7Vqag",
              "name": "Clairo",
              "type": "artist",
              "uri": "spotify:artist:3l0CmX0FuQjFxr8SK7Vqag"
            },
            {
              "external_urls": {
                "spotify": "https://open.spotify.com/artist/3lLHpTOJ11tWiUNGYN14gt"
              },
              "href": "https://api.spotify.com/v1/artists/3lLHpTOJ11tWiUNGYN14gt",
              "id": "3lLHpTOJ11tWiUNGYN14gt",
              "name": "Rejjie Snow",
              "type": "artist",
              "uri": "spotify:artist:3lLHpTOJ11tWiUNGYN14gt"
            }
          ],
          "disc_number": 1,
          "duration_ms": 135016,
          "explicit": false,
          "external_ids": {
            "isrc": "US4HB1800005"
          },
          "external_urls": {
            "spotify": "https://open.spotify.com/track/7qwt4xUIqQWCu1DJf96g2k"
          },
          "href": "https://api.spotify.com/v1/tracks/7qwt4xUIqQWCu1DJf96g2k",
          "id": "7qwt4xUIqQWCu1DJf96g2k",
          "is_local": false,
          "name": "Hello?",
          "popularity": 75,
          "preview_url": null,
          "track_number": 1,
          "type": "track",
          "uri": "spotify:track:7qwt4xUIqQWCu1DJf96g2k"
        }
      ],
      "limit": 1,
      "next": "https://api.spotify.com/v1/search?query=hello+&type=track&offset=1&limit=1",
      "offset": 0,
      "previous": null,
      "total": 73319
    }
  },

  {
    "albums": {
      "href": "https://api.spotify.com/v1/search?query=hello+&type=album&offset=0&limit=1",
      "items": [
        {
          "album_type": "album",
          "artists": [
            {
              "external_urls": {
                "spotify": "https://open.spotify.com/artist/4VhL8KLjVso4vLfOLVViTb"
              },
              "href": "https://api.spotify.com/v1/artists/4VhL8KLjVso4vLfOLVViTb",
              "id": "4VhL8KLjVso4vLfOLVViTb",
              "name": "Bridgit Mendler",
              "type": "artist",
              "uri": "spotify:artist:4VhL8KLjVso4vLfOLVViTb"
            }
          ],
          "external_urls": {
            "spotify": "https://open.spotify.com/album/114sumrk5wTeMWHVin86QC"
          },
          "href": "https://api.spotify.com/v1/albums/114sumrk5wTeMWHVin86QC",
          "id": "114sumrk5wTeMWHVin86QC",
          "images": [
            {
              "height": 640,
              "url": "https://i.scdn.co/image/ab67616d0000b273c0758d813c09f649f630f405",
              "width": 640
            },
            {
              "height": 300,
              "url": "https://i.scdn.co/image/ab67616d00001e02c0758d813c09f649f630f405",
              "width": 300
            },
            {
              "height": 64,
              "url": "https://i.scdn.co/image/ab67616d00004851c0758d813c09f649f630f405",
              "width": 64
            }
          ],
          "name": "Hello My Name Is...",
          "release_date": "2012-01-01",
          "release_date_precision": "day",
          "total_tracks": 12,
          "type": "album",
          "uri": "spotify:album:114sumrk5wTeMWHVin86QC"
        }
      ],
      "limit": 1,
      "next": "https://api.spotify.com/v1/search?query=hello+&type=album&offset=1&limit=1",
      "offset": 0,
      "previous": null,
      "total": 9164
    }
  }
]
